Project Gutenberg
…
── Attaching core tidyverse packages ──────────────────────── tidyverse 2.0.0 ──
✔ dplyr     1.1.4     ✔ readr     2.1.5
✔ forcats   1.0.0     ✔ stringr   1.5.2
✔ ggplot2   4.0.0     ✔ tibble    3.3.0
✔ lubridate 1.9.4     ✔ tidyr     1.3.1
✔ purrr     1.1.0     
── Conflicts ────────────────────────────────────────── tidyverse_conflicts() ──
✖ dplyr::filter() masks stats::filter()
✖ dplyr::lag()    masks stats::lag()
ℹ Use the conflicted package (<http://conflicted.r-lib.org/>) to force all conflicts to become errors

library(ggplot2)
gutenberg_works()

# A tibble: 61,693 × 8
   gutenberg_id title    author gutenberg_author_id language gutenberg_bookshelf
          <int> <chr>    <chr>                <int> <fct>    <chr>              
 1            1 "The De… Jeffe…                1638 en       Politics/American …
 2            2 "The Un… Unite…                   1 en       Politics/American …
 3            3 "John F… Kenne…                1666 en       Browsing: History …
 4            4 "Lincol… Linco…                   3 en       US Civil War/Brows…
 5            5 "The Un… Unite…                   1 en       United States/Poli…
 6            6 "Give M… Henry…                   4 en       American Revolutio…
 7            7 "The Ma… <NA>                    NA en       Browsing: History …
 8            8 "Abraha… Linco…                   3 en       US Civil War/Brows…
 9            9 "Abraha… Linco…                   3 en       US Civil War/Brows…
10           10 "The Ki… <NA>                    NA en       Banned Books List …
# ℹ 61,683 more rows
# ℹ 2 more variables: rights <fct>, has_text <lgl>
…
